{
  "version":"14.0.4",
  "vulnerabilities":[
     {
        "id":"c5bf56619844e5ec80001ea99950a815401a3e0d723ad73b821adab005f5dd05",
        "category":"secret_detection",
        "name":"Test for Raw Custom Rulesets",
        "message":"Test for Raw Custom Rulesets detected; please remove and revoke it if this is a leak.",
        "description":"Historic Test for Raw Custom Rulesets secret has been found in commit c7f9b857217947ef5b72888392ae76d2c2ced6e8.",
        "cve":"main.php:19bd5668b8cded7ffccee2676e912af441fc661448cee00de00bec2063b07205:Test for Raw Custom Rulesets",
        "severity":"Critical",
        "confidence":"Unknown",
        "raw_source_code_extract":"Custom Raw Ruleset Test",
        "scanner":{
           "id":"gitleaks",
           "name":"Gitleaks"
        },
        "location":{
           "file":"main.php",
           "commit":{
              "author":"Daniel Paul Searles",
              "date":"2020-10-13T21:20:12Z",
              "message":"Setup raw passthrough ruleset test",
              "sha":"c7f9b857217947ef5b72888392ae76d2c2ced6e8"
           },
           "start_line":14
        },
        "identifiers":[
           {
              "type":"gitleaks_rule_id",
              "name":"Gitleaks rule ID Test for Raw Custom Rulesets",
              "value":"Test for Raw Custom Rulesets"
           }
        ]
     }
  ],
  "scan":{
     "analyzer": {
        "id": "secrets",
        "name": "secrets",
        "url": "https://gitlab.com/gitlab-org/security-products/analyzers/secrets",
        "vendor": {
           "name": "GitLab"
        }
     },
     "scanner":{
        "id":"gitleaks",
        "name":"Gitleaks",
        "url":"https://github.com/zricethezav/gitleaks",
        "vendor":{
           "name":"GitLab"
        },
        "version":"8.6.1"
     },
     "type":"secret_detection",
     "start_time":"2022-05-03T18:42:20",
     "end_time":"2022-05-03T18:42:20",
     "status":"success"
  }
}